{
  "project_info": {
    "project_number": "798290152417",
    "project_id": "curdapp-a830c",
    "storage_bucket": "curdapp-a830c.appspot.com"
  },
  "client": [
    {
      "client_info": {
        "mobilesdk_app_id": "1:798290152417:android:b9d3c924d2f33a575f60a0",
        "android_client_info": {
          "package_name": "com.example.curd"
        }
      },
      "oauth_client": [],
      "api_key": [
        {
          "current_key": "AIzaSyAfHlfGgHSZZI0hfVGbsN9m-R7dSyg_XxQ"
        }
      ],
      "services": {
        "appinvite_service": {
          "other_platform_oauth_client": []
        }
      }
    },
    {
      "client_info": {
        "mobilesdk_app_id": "1:798290152417:android:c79467eeeea1fd6c5f60a0",
        "android_client_info": {
          "package_name": "com.example.curdapp"
        }
      },
      "oauth_client": [],
      "api_key": [
        {
          "current_key": "AIzaSyAfHlfGgHSZZI0hfVGbsN9m-R7dSyg_XxQ"
        }
      ],
      "services": {
        "appinvite_service": {
          "other_platform_oauth_client": []
        }
      }
    }
  ],
  "configuration_version": "1"
}